<?xml version="1.0" encoding="UTF-8"?>
<svg width="975px" height="181px" viewBox="0 0 975 181" version="1.1" xmlns="http://www.w3.org/2000/svg" xmlns:xlink="http://www.w3.org/1999/xlink">
    <!-- Generator: Sketch 52.2 (67145) - http://www.bohemiancoding.com/sketch -->
    <title>Artboard</title>
    <desc>Created with Sketch.</desc>
    <g id="Artboard" stroke="none" stroke-width="1" fill="none" fill-rule="evenodd">
        <g id="Group" transform="translate(-5.000000, 1.000000)" fill="#D8D8D8">
            <polygon id="Path" points="89 81 74.9550562 81 74.9550562 24.6191819 54.2808989 79.8857546 43.6067416 79.8857546 23.0449438 23.9506347 23.0449438 81 9 81 9 2 28.5505618 2 49.4494382 58.2693935 70.4606742 2 89 2"></polygon>
            <path d="M168,51.0263158 C168,69.9861496 157.406475,83 137,83 C116.593525,83 106,69.9861496 106,51.0263158 L106,2 L120.384892,2 L120.384892,50.8019391 C120.384892,62.132964 125.514388,69.8739612 137,69.8739612 C148.485612,69.8739612 153.615108,62.132964 153.615108,50.8019391 L153.615108,2 L168,2 L168,51.0263158 Z" id="Path"></path>
            <polygon id="Path" points="235 81 184 81 184 2 198.364629 2 198.364629 67.4062059 235 67.4062059"></polygon>
            <polygon id="Path" points="298 15.370945 274.666667 15.370945 274.666667 81 260.333333 81 260.333333 15.370945 237 15.370945 237 2 298 2"></polygon>
            <polygon id="Path" points="323 81 308 81 308 2 323 2"></polygon>
            <path d="M401,27.2933709 C401,42.4471086 391.278409,52.6981664 373.064394,52.6981664 L356.30303,52.6981664 L356.30303,81 L342,81 L342,2 L373.064394,2 C391.278409,2 401,12.1396333 401,27.2933709 Z" id="Path"></path>
            <path d="M386,27.0567686 C386,19.3362445 381.666667,14 372.111111,14 L356,14 L356,40 L372.111111,40 C381.666667,40 386,34.7772926 386,27.0567686 Z" id="Path"></path>
            <polygon id="Path" points="463 81 412 81 412 2 426.364629 2 426.364629 67.4062059 463 67.4062059"></polygon>
            <polygon id="Path" points="530 81 473 81 473 2 530 2 530 15.0366714 487.560396 15.0366714 487.560396 33.4217207 524.920792 33.4217207 524.920792 46.3469676 487.560396 46.3469676 487.560396 67.9633286 530 67.9633286"></polygon>
            <path d="M625,57.0095238 C625,64.3727891 622.300527,69.6163265 618.363796,73.5210884 C612.289982,79.5455782 602.954306,82 593.168717,82 C584.732865,82 575.8471,79.7687075 569.323374,73.8557823 C564.599297,69.6163265 561,62.922449 561,55.447619 L575.8471,55.447619 C575.8471,59.352381 577.646749,62.8108844 580.008787,65.1537415 C583.383128,68.5006803 588.782074,69.3931973 593.393673,69.3931973 C598.905097,69.3931973 604.191564,68.277551 607.228471,65.1537415 C609.02812,63.2571429 610.377856,61.3605442 610.377856,57.5673469 C610.377856,51.7659864 605.878735,49.0884354 600.929701,48.1959184 C595.530756,47.1918367 588.557118,46.9687075 583.27065,46.0761905 C572.247803,44.2911565 563.024605,37.1510204 563.024605,23.9863946 C563.024605,17.7387755 565.836555,12.4952381 569.998243,8.36734694 C575.28471,3.23537415 584.057996,0 593.393673,0 C601.942004,0 610.265378,2.67755102 615.664323,7.69795918 C620.388401,12.1605442 623.650264,17.9619048 623.762742,24.5442177 L608.915641,24.5442177 C608.803163,21.755102 607.340949,18.7428571 605.428822,16.7346939 C602.841828,14.0571429 597.55536,12.4952381 593.281195,12.4952381 C588.782074,12.4952381 583.608084,13.4993197 580.346221,16.8462585 C578.659051,18.6312925 577.646749,20.6394558 577.646749,23.5401361 C577.646749,28.6721088 581.02109,31.3496599 585.745167,32.1306122 C590.806678,32.9115646 597.892794,33.4693878 603.066784,34.1387755 C614.989455,35.8122449 625,43.5102041 625,57.0095238 Z" id="Path"></path>
            <polygon id="Path" points="690 15.370945 666.666667 15.370945 666.666667 81 652.333333 81 652.333333 15.370945 629 15.370945 629 2 690 2"></polygon>
            <polygon id="Path" points="763 81 747.788732 81 742.605634 65.8462623 710.830986 65.8462623 705.647887 81 691 81 719.056338 2 734.943662 2"></polygon>
            <polygon id="Path" points="738 53 726.5 20 715 53"></polygon>
            <polygon id="Path" points="825 15.370945 801.666667 15.370945 801.666667 81 787.333333 81 787.333333 15.370945 764 15.370945 764 2 825 2"></polygon>
            <polygon id="Path" points="891 81 834 81 834 2 891 2 891 15.0366714 848.560396 15.0366714 848.560396 33.4217207 885.920792 33.4217207 885.920792 46.3469676 848.560396 46.3469676 848.560396 67.9633286 891 67.9633286"></polygon>
            <path d="M963,57.0095238 C963,64.3727891 960.300527,69.6163265 956.363796,73.5210884 C950.289982,79.5455782 940.954306,82 931.168717,82 C922.732865,82 913.8471,79.7687075 907.323374,73.8557823 C902.599297,69.6163265 899,62.922449 899,55.447619 L913.8471,55.447619 C913.8471,59.352381 915.646749,62.8108844 918.008787,65.1537415 C921.383128,68.5006803 926.782074,69.3931973 931.393673,69.3931973 C936.905097,69.3931973 942.191564,68.277551 945.228471,65.1537415 C947.02812,63.2571429 948.377856,61.3605442 948.377856,57.5673469 C948.377856,51.7659864 943.878735,49.0884354 938.929701,48.1959184 C933.530756,47.1918367 926.557118,46.9687075 921.27065,46.0761905 C910.247803,44.2911565 901.024605,37.1510204 901.024605,23.9863946 C901.024605,17.7387755 903.836555,12.4952381 907.998243,8.36734694 C913.28471,3.23537415 922.057996,0 931.393673,0 C939.942004,0 948.265378,2.67755102 953.664323,7.69795918 C958.388401,12.1605442 961.650264,17.9619048 961.762742,24.5442177 L946.915641,24.5442177 C946.803163,21.755102 945.340949,18.7428571 943.428822,16.7346939 C940.841828,14.0571429 935.55536,12.4952381 931.281195,12.4952381 C926.782074,12.4952381 921.608084,13.4993197 918.346221,16.8462585 C916.659051,18.6312925 915.646749,20.6394558 915.646749,23.5401361 C915.646749,28.6721088 919.02109,31.3496599 923.745167,32.1306122 C928.806678,32.9115646 935.892794,33.4693878 941.066784,34.1387755 C952.989455,35.8122449 963,43.5102041 963,57.0095238 Z" id="Path"></path>
            <polygon id="Path" points="70 172 55.2112676 172 50.172144 157.038082 19.2801252 157.038082 14.2410016 172 0 172 27.2769953 94 42.7230047 94"></polygon>
            <polygon id="Path" points="46 144 35 111 24 144"></polygon>
            <polygon id="Path" points="142 172 127.45679 172 93.8871252 118.423131 93.8871252 172 80 172 80 94 94.9805996 94 128.112875 146.80677 128.112875 94 142 94"></polygon>
            <path d="M221,132.944993 C221,143.726375 219.90681,155.38787 211.926523,163.638928 C206.78853,169.029619 199.026882,172 190.172043,172 L160,172 L160,94 L190.172043,94 C199.026882,94 206.78853,96.9703808 211.926523,102.361072 C219.90681,110.61213 221,122.163611 221,132.944993 Z" id="Path"></path>
            <path d="M207,132.945493 C207,125.859539 206.889262,116.811321 201.352349,111.360587 C198.694631,108.744235 194.818792,107 190.278523,107 L174,107 L174,159 L190.278523,159 C194.818792,159 198.694631,157.255765 201.352349,154.639413 C206.889262,149.188679 207,140.031447 207,132.945493 Z" id="Path"></path>
            <path d="M318,172 L302.587156,172 L289.59633,142.51622 L272.311927,142.51622 L272.311927,172 L258,172 L258,94 L290.917431,94 C309.522936,94 318,105.661495 318,118.203103 C318,128.654443 312.275229,136.905501 303.688073,140.09591 L318,172 Z" id="Path"></path>
            <path d="M304,118.608491 C304,112.424528 299.094077,107 290.954704,107 L272,107 L272,130 L291.1777,130 C299.317073,130 304,125.877358 304,118.608491 Z" id="Path"></path>
            <polygon id="Path" points="345 172 331 172 331 94 345 94"></polygon>
            <polygon id="Path" points="417 106.87165 377.216327 106.87165 377.216327 127.77433 412.702041 127.77433 412.702041 140.64598 377.216327 140.64598 377.216327 172 363 172 363 94 417 94"></polygon>
            <polygon id="Path" points="493 172 476.394958 172 455.420168 135.145275 442.092437 150.877292 442.092437 172 428 172 428 94 442.092437 94 442.092437 129.974612 473.008403 94 490.159664 94 465.252101 123.48378"></polygon>
            <polygon id="Path" points="558 172 502 172 502 94 558 94 558 106.87165 516.30495 106.87165 516.30495 125.023977 553.009901 125.023977 553.009901 137.785614 516.30495 137.785614 516.30495 159.12835 558 159.12835"></polygon>
            <polygon id="Path" points="587 172 570 172 570 155 587 155"></polygon>
            <polygon id="Path" points="689 94 673.520286 172 659.357995 172 643.109785 118.203103 626.861575 172 612.699284 172 597 94 610.50358 94 621.372315 148.236953 637.400955 95.2101551 649.257757 95.2101551 664.957041 148.236953 676.045346 94"></polygon>
            <path d="M760,133.555102 C760,146.338776 758.562925,156.697959 750.05102,165.183673 C744.081633,171.134694 735.901361,174 727.5,174 C719.098639,174 710.918367,171.134694 704.94898,165.183673 C696.437075,156.697959 695,146.338776 695,133.555102 C695,120.771429 696.437075,110.302041 704.94898,101.816327 C710.918367,95.8653061 719.098639,93 727.5,93 C735.901361,93 744.081633,95.8653061 750.05102,101.816327 C758.562925,110.302041 760,120.771429 760,133.555102 Z" id="Path"></path>
            <path d="M746,133.55489 C746,126.419162 745.779141,116.758483 740.368098,111.159681 C737.276074,107.866267 732.527607,106 728,106 C723.472393,106 718.723926,107.866267 715.631902,111.159681 C710.220859,116.758483 710,126.419162 710,133.55489 C710,140.690619 710.220859,150.241517 715.631902,155.840319 C718.723926,159.133733 723.472393,161 728,161 C732.527607,161 737.276074,159.133733 740.368098,155.840319 C745.779141,150.241517 746,140.690619 746,133.55489 Z" id="Path"></path>
            <path d="M834,172 L818.587156,172 L805.59633,142.51622 L788.311927,142.51622 L788.311927,172 L774,172 L774,94 L806.917431,94 C825.522936,94 834,105.661495 834,118.203103 C834,128.654443 828.275229,136.905501 819.688073,140.09591 L834,172 Z" id="Path"></path>
            <path d="M820,118.608491 C820,112.424528 815.094077,107 806.954704,107 L788,107 L788,130 L807.1777,130 C815.317073,130 820,125.877358 820,118.608491 Z" id="Path"></path>
            <polygon id="Path" points="896 172 846 172 846 94 860.082969 94 860.082969 158.578279 896 158.578279"></polygon>
            <path d="M968,132.944993 C968,143.726375 966.90681,155.38787 958.926523,163.638928 C953.78853,169.029619 946.026882,172 937.172043,172 L907,172 L907,94 L937.172043,94 C946.026882,94 953.78853,96.9703808 958.926523,102.361072 C966.90681,110.61213 968,122.163611 968,132.944993 Z" id="Path"></path>
            <path d="M954,132.945493 C954,125.859539 953.889262,116.811321 948.352349,111.360587 C945.694631,108.744235 941.818792,107 937.278523,107 L921,107 L921,159 L937.278523,159 C941.818792,159 945.694631,157.255765 948.352349,154.639413 C953.889262,149.188679 954,140.031447 954,132.945493 Z" id="Path"></path>
        </g>
    </g>
</svg>