<?xml version="1.0" encoding="UTF-8"?>
<svg width="206px" height="125px" viewBox="0 0 206 125" version="1.1" xmlns="http://www.w3.org/2000/svg" xmlns:xlink="http://www.w3.org/1999/xlink">
    <!-- Generator: Sketch 52.2 (67145) - http://www.bohemiancoding.com/sketch -->
    <title>uni copy 2</title>
    <desc>Created with Sketch.</desc>
    <g id="uni-copy-2" stroke="none" stroke-width="1" fill="none" fill-rule="evenodd">
        <path d="M102.8,62.36 C102.8,80.92 100.72,95.96 88.4,108.28 C79.76,116.92 67.92,121.08 55.76,121.08 C43.6,121.08 31.76,116.92 23.12,108.28 C10.8,95.96 8.72,80.92 8.72,62.36 C8.72,43.8 10.8,28.6 23.12,16.28 C31.76,7.64 43.6,3.48 55.76,3.48 C67.92,3.48 79.76,7.64 88.4,16.28 C100.72,28.6 102.8,43.8 102.8,62.36 Z M81.84,62.36 C81.84,51.96 81.52,37.88 73.68,29.72 C69.2,24.92 62.32,22.2 55.76,22.2 C49.2,22.2 42.32,24.92 37.84,29.72 C30,37.88 29.68,51.96 29.68,62.36 C29.68,72.76 30,86.68 37.84,94.84 C42.32,99.64 49.2,102.36 55.76,102.36 C62.32,102.36 69.2,99.64 73.68,94.84 C81.52,86.68 81.84,72.76 81.84,62.36 Z M201.18,24.28 L143.42,24.28 L143.42,54.68 L194.94,54.68 L194.94,73.4 L143.42,73.4 L143.42,119 L122.78,119 L122.78,5.56 L201.18,5.56 L201.18,24.28 Z" id="OF" fill="#000000"></path>
    </g>
</svg>